PHEindicatormethods DSR function
…
confidence - the confidence level(s) returned

statistic - the statistic including the multiplier applied

method - the DSR method applied

calculate_dsr(
  data = df, 
  x = dths, # name of field containing count of events
  n = pop, # name of field containing population denominators
  stdpop = esp2013 # name of field containing standard populations
)
#> # A tibble: 40 × 11
#>    indicator period region total_count total_pop value lowercl uppercl
#>    <chr>      <int> <chr>        <int>     <int> <dbl>   <dbl>   <dbl>
#>  1 Ind1        2012 Area1         2143    306232  654.    624.    685.
#>  2 Ind1        2012 Area2         1630    275929  626.    595.    659.
#>  3 Ind1        2013 Area1         1568    282487  566.    537.    597.
#>  4 Ind1        2013 Area2         1872    278527  681.    648.    715.
#>  5 Ind1        2014 Area1         2017    279842  766.    731.    802.
#>  6 Ind1        2014 Area2         1582    275099  628.    595.    662.
#>  7 Ind1        2015 Area1         1657    265469  648.    614.    683.
#>  8 Ind1        2015 Area2         1847    301702  577.    550.    606.
#>  9 Ind1        2016 Area1         1874    279958  683.    649.    717.
#> 10 Ind1        2016 Area2         1979    279559  828.    790.    868.
#> # ℹ 30 more rows
#> # ℹ 3 more variables: confidence <chr>, statistic <chr>, method <chr>

Alternatively, we can drop metadata fields by specifying the ‘type’
argument value as ‘standard’, and adjust the multiplier applied to the
DSR:

calculate_dsr(
  data = df, 
  x = dths, 
  n = pop, 
  stdpop = esp2013, 
  type = "standard", 
  confidence = 99.8, 
  multiplier = 10000
)
#> # A tibble: 40 × 8
#>    indicator period region total_count total_pop value lowercl uppercl
#>    <chr>      <int> <chr>        <int>     <int> <dbl>   <dbl>   <dbl>
#>  1 Ind1        2012 Area1         2143    306232  65.4    60.7    70.4
#>  2 Ind1        2012 Area2         1630    275929  62.6    57.7    67.9
#>  3 Ind1        2013 Area1         1568    282487  56.6    52.1    61.4
#>  4 Ind1        2013 Area2         1872    278527  68.1    63.0    73.5
#>  5 Ind1        2014 Area1         2017    279842  76.6    71.2    82.3
#>  6 Ind1        2014 Area2         1582    275099  62.8    57.6    68.2
#>  7 Ind1        2015 Area1         1657    265469  64.8    59.5    70.3
#>  8 Ind1        2015 Area2         1847    301702  57.7    53.4    62.3
#>  9 Ind1        2016 Area1         1874    279958  68.3    63.1    73.7
#> 10 Ind1        2016 Area2         1979    279559  82.8    76.9    89.1
#> # ℹ 30 more rows
…
# calculate the dsrs - notice that output DSRs values match those calculated
# earlier for the same data frame but confidence intervals are wider
df_person_freq %>%
  group_by(eventfrequency, .add = TRUE) %>%
  calculate_dsr(
    x = uniquepeople, # count of unique individuals experiencing the frequency of events in eventfreq
    n = pop,
    stdpop = esp2013,
    independent_events = FALSE, # calculate CIs assuming events are not independent
    eventfreq = eventfrequency, # name of column containing the event frequencies (e.g. 1, 2, ...)
    ageband = ageband # name of column containing age bands
  )
#> # A tibble: 40 × 11
#>    indicator period region total_count total_pop value lowercl uppercl
#>    <chr>      <int> <chr>        <dbl>     <int> <dbl>   <dbl>   <dbl>
#>  1 Ind1        2012 Area1         2143    306232  654.    619.    691.
#>  2 Ind1        2012 Area2         1630    275929  626.    589.    665.
#>  3 Ind1        2013 Area1         1568    282487  566.    533.    602.
#>  4 Ind1        2013 Area2         1872    278527  681.    643.    720.
#>  5 Ind1        2014 Area1         2017    279842  766.    725.    808.
#>  6 Ind1        2014 Area2         1582    275099  628.    589.    668.
#>  7 Ind1        2015 Area1         1657    265469  648.    609.    688.
#>  8 Ind1        2015 Area2         1847    301702  577.    545.    611.
#>  9 Ind1        2016 Area1         1874    279958  683.    644.    723.
#> 10 Ind1        2016 Area2         1979    279559  828.    784.    874.
#> # ℹ 30 more rows
#> # ℹ 3 more variables: confidence <chr>, statistic <chr>, method <chr>
…
