Introduction to PHEindicatormethods
…
Here are some example code chunks to demonstrate the calculate_dsr
function and the arguments that can optionally be specified

# Append the standard populations to the data frame
# calculate separate dsrs for each area, year and sex
df_std %>%
    mutate(refpop = rep(esp2013, 40)) %>%
    group_by(area, year, sex) %>%
    calculate_dsr(obs,pop, stdpop = refpop)
#> # A tibble: 40 × 11
#>    area   year sex    total_count total_pop value lowercl uppercl confidence
#>    <chr> <int> <chr>        <int>     <int> <dbl>   <dbl>   <dbl> <chr>     
#>  1 Area1  2006 Female        1861    294983  696.    662.    731. 95%       
#>  2 Area1  2006 Male          2127    274342  923.    882.    966. 95%       
#>  3 Area1  2007 Female        1600    298660  501.    474.    528. 95%       
#>  4 Area1  2007 Male          1903    277997  689.    657.    722. 95%       
#>  5 Area1  2008 Female        2337    269842  890.    852.    930. 95%       
#>  6 Area1  2008 Male          1881    251491  823.    784.    863. 95%       
#>  7 Area1  2009 Female        2110    285933  745.    711.    779. 95%       
#>  8 Area1  2009 Male          2205    296395  777.    742.    812. 95%       
#>  9 Area1  2010 Female        2083    299827  753.    718.    788. 95%       
#> 10 Area1  2010 Male          1675    285936  580.    550.    611. 95%       
#> # ℹ 30 more rows
#> # ℹ 2 more variables: statistic <chr>, method <chr>

# Append the standard populations to the data frame
# calculate separate dsrs for each area, year and sex and drop metadata fields from output
df_std %>%
    mutate(refpop = rep(esp2013, 40)) %>%
    group_by(area, year, sex) %>%
    calculate_dsr(obs,pop, stdpop = refpop, type = "standard")
#> # A tibble: 40 × 8
#>    area   year sex    total_count total_pop value lowercl uppercl
#>    <chr> <int> <chr>        <int>     <int> <dbl>   <dbl>   <dbl>
#>  1 Area1  2006 Female        1861    294983  696.    662.    731.
#>  2 Area1  2006 Male          2127    274342  923.    882.    966.
#>  3 Area1  2007 Female        1600    298660  501.    474.    528.
#>  4 Area1  2007 Male          1903    277997  689.    657.    722.
#>  5 Area1  2008 Female        2337    269842  890.    852.    930.
#>  6 Area1  2008 Male          1881    251491  823.    784.    863.
#>  7 Area1  2009 Female        2110    285933  745.    711.    779.
#>  8 Area1  2009 Male          2205    296395  777.    742.    812.
#>  9 Area1  2010 Female        2083    299827  753.    718.    788.
#> 10 Area1  2010 Male          1675    285936  580.    550.    611.
#> # ℹ 30 more rows

# calculate for under 75s by filtering out records for 75+ from input data frame and standard population
df_std %>%
  filter(ageband <= 70) %>%
  mutate(refpop = rep(esp2013[1:15], 40)) %>%
  group_by(area, year, sex) %>%
  calculate_dsr(obs, pop, stdpop = refpop)
#> # A tibble: 40 × 11
#>    area   year sex    total_count total_pop value lowercl uppercl confidence
#>    <chr> <int> <chr>        <int>     <int> <dbl>   <dbl>   <dbl> <chr>     
#>  1 Area1  2006 Female        1557    229922  713.    676.    751. 95%       
#>  2 Area1  2006 Male          1830    202544  967.    923.   1014. 95%       
#>  3 Area1  2007 Female        1154    243287  488.    460.    517. 95%       
#>  4 Area1  2007 Male          1498    217199  679.    645.    715. 95%       
#>  5 Area1  2008 Female        1877    218046  890.    849.    933. 95%       
#>  6 Area1  2008 Male          1543    200893  825.    783.    868. 95%       
#>  7 Area1  2009 Female        1612    232935  719.    684.    755. 95%       
#>  8 Area1  2009 Male          1791    220788  798.    760.    836. 95%       
#>  9 Area1  2010 Female        1622    237477  729.    693.    767. 95%       
#> 10 Area1  2010 Male          1191    218806  557.    525.    590. 95%       
#> # ℹ 30 more rows
#> # ℹ 2 more variables: statistic <chr>, method <chr>
…
Here are some example code chunks to demonstrate the
calculate_ISRatio function and the arguments that can optionally be
specified

# calculate separate smrs for each area, year and sex
# standardised against the all-year, all-sex, all-area reference data
df_std %>%
    group_by(area, year, sex) %>%
    calculate_ISRatio(obs, pop, df_ref$obs, df_ref$pop)
#> # A tibble: 40 × 11
#> # Groups:   area, year, sex [40]
#>    area   year sex    observed expected value lowercl uppercl confidence
#>    <chr> <int> <chr>     <int>    <dbl> <dbl>   <dbl>   <dbl> <chr>     
#>  1 Area1  2006 Female     1861    1903. 0.978   0.934   1.02  95%       
#>  2 Area1  2006 Male       2127    1805. 1.18    1.13    1.23  95%       
#>  3 Area1  2007 Female     1600    1942. 0.824   0.784   0.865 95%       
#>  4 Area1  2007 Male       1903    1809. 1.05    1.01    1.10  95%       
#>  5 Area1  2008 Female     2337    1764. 1.33    1.27    1.38  95%       
#>  6 Area1  2008 Male       1881    1629. 1.15    1.10    1.21  95%       
#>  7 Area1  2009 Female     2110    1862. 1.13    1.09    1.18  95%       
#>  8 Area1  2009 Male       2205    1929. 1.14    1.10    1.19  95%       
#>  9 Area1  2010 Female     2083    1946. 1.07    1.02    1.12  95%       
#> 10 Area1  2010 Male       1675    1842. 0.909   0.866   0.954 95%       
#> # ℹ 30 more rows
#> # ℹ 2 more variables: statistic <chr>, method <chr>

# calculate the same smrs by appending the reference data to the data frame
# and drop metadata columns from output
df_std %>%
    mutate(refobs = rep(df_ref$obs,40),
           refpop = rep(df_ref$pop,40)) %>%
    group_by(area, year, sex) %>%
    calculate_ISRatio(obs, pop, refobs, refpop, refpoptype = "field",
                      type = "standard")
#> # A tibble: 40 × 8
#> # Groups:   area, year, sex [40]
#>    area   year sex    observed expected value lowercl uppercl
#>    <chr> <int> <chr>     <int>    <dbl> <dbl>   <dbl>   <dbl>
#>  1 Area1  2006 Female     1861    1903. 0.978   0.934   1.02 
#>  2 Area1  2006 Male       2127    1805. 1.18    1.13    1.23 
#>  3 Area1  2007 Female     1600    1942. 0.824   0.784   0.865
#>  4 Area1  2007 Male       1903    1809. 1.05    1.01    1.10 
#>  5 Area1  2008 Female     2337    1764. 1.33    1.27    1.38 
#>  6 Area1  2008 Male       1881    1629. 1.15    1.10    1.21 
#>  7 Area1  2009 Female     2110    1862. 1.13    1.09    1.18 
#>  8 Area1  2009 Male       2205    1929. 1.14    1.10    1.19 
#>  9 Area1  2010 Female     2083    1946. 1.07    1.02    1.12 
#> 10 Area1  2010 Male       1675    1842. 0.909   0.866   0.954
#> # ℹ 30 more rows

The calculate_ISRate function works exactly the same way but instead
of expressing the result as a ratio of the observed and expected rates
the result is expressed as a rate and the reference rate is also
provided. Here are some examples:

# calculate separate indirectly standardised rates for each area, year and sex
# standardised against the all-year, all-sex, all-area reference data
df_std %>%
    group_by(area, year, sex) %>%
    calculate_ISRate(obs, pop, df_ref$obs, df_ref$pop)
#> # A tibble: 40 × 12
#> # Groups:   area, year, sex [40]
#>    area   year sex   observed expected ref_rate value lowercl uppercl confidence
#>    <chr> <int> <chr>    <int>    <dbl>    <dbl> <dbl>   <dbl>   <dbl> <chr>     
#>  1 Area1  2006 Fema…     1861    1903.     649.  635.    606.    665. 95%       
#>  2 Area1  2006 Male      2127    1805.     649.  765.    733.    798. 95%       
#>  3 Area1  2007 Fema…     1600    1942.     649.  535.    509.    562. 95%       
#>  4 Area1  2007 Male      1903    1809.     649.  683.    653.    715. 95%       
#>  5 Area1  2008 Fema…     2337    1764.     649.  861.    826.    896. 95%       
#>  6 Area1  2008 Male      1881    1629.     649.  750.    716.    784. 95%       
#>  7 Area1  2009 Fema…     2110    1862.     649.  736.    705.    768. 95%       
#>  8 Area1  2009 Male      2205    1929.     649.  742.    712.    774. 95%       
#>  9 Area1  2010 Fema…     2083    1946.     649.  695.    666.    726. 95%       
#> 10 Area1  2010 Male      1675    1842.     649.  590.    562.    619. 95%       
#> # ℹ 30 more rows
#> # ℹ 2 more variables: statistic <chr>, method <chr>

# calculate the same indirectly standardised rates by appending the reference data to the data frame
# and drop metadata columns from output
df_std %>%
    mutate(refobs = rep(df_ref$obs,40),
           refpop = rep(df_ref$pop,40)) %>%
    group_by(area, year, sex) %>%
    calculate_ISRate(obs, pop, refobs, refpop, refpoptype = "field",
                     type = "standard")
#> # A tibble: 40 × 9
#> # Groups:   area, year, sex [40]
#>    area   year sex    observed expected ref_rate value lowercl uppercl
#>    <chr> <int> <chr>     <int>    <dbl>    <dbl> <dbl>   <dbl>   <dbl>
#>  1 Area1  2006 Female     1861    1903.     649.  635.    606.    665.
#>  2 Area1  2006 Male       2127    1805.     649.  765.    733.    798.
#>  3 Area1  2007 Female     1600    1942.     649.  535.    509.    562.
#>  4 Area1  2007 Male       1903    1809.     649.  683.    653.    715.
#>  5 Area1  2008 Female     2337    1764.     649.  861.    826.    896.
#>  6 Area1  2008 Male       1881    1629.     649.  750.    716.    784.
#>  7 Area1  2009 Female     2110    1862.     649.  736.    705.    768.
#>  8 Area1  2009 Male       2205    1929.     649.  742.    712.    774.
#>  9 Area1  2010 Female     2083    1946.     649.  695.    666.    726.
#> 10 Area1  2010 Male       1675    1842.     649.  590.    562.    619.
#> # ℹ 30 more rows
